operating_date,Metric,reservation_count
03-07-2020,Actual,3856.0
04-07-2020,Actual,4233.0
05-07-2020,Actual,3942.0
06-07-2020,Actual,2609.0
07-07-2020,Actual,3607.0
08-07-2020,Actual,4416.0
09-07-2020,Actual,4116.0
10-07-2020,Actual,3225.0
11-07-2020,Actual,4204.0
12-07-2020,Actual,4260.0
13-07-2020,Actual,2162.0
14-07-2020,Actual,2857.0
15-07-2020,Actual,3310.0
16-07-2020,Actual,2650.0
17-07-2020,Actual,3695.0
18-07-2020,Actual,4527.0
19-07-2020,Actual,3913.0
20-07-2020,Actual,2663.0
21-07-2020,Actual,3790.0
22-07-2020,Actual,4504.0
23-07-2020,Actual,4839.0
24-07-2020,Actual,4567.0
25-07-2020,Actual,4840.0
26-07-2020,Actual,4780.0
27-07-2020,Actual,4079.0
28-07-2020,Actual,5027.0
29-07-2020,Actual,4702.0
30-07-2020,Actual,4945.0
31-07-2020,Actual,5141.0
01-08-2020,Actual,5448.0
02-08-2020,Actual,5085.0
03-08-2020,Actual,4912.0
04-08-2020,Actual,4874.0
05-08-2020,Actual,5563.0
06-08-2020,Actual,5712.0
07-08-2020,Actual,6061.0
08-08-2020,Actual,5964.0
09-08-2020,Actual,5439.0
10-08-2020,Actual,4900.0
11-08-2020,Actual,5081.0
12-08-2020,Actual,5507.0
13-08-2020,Actual,6129.0
14-08-2020,Actual,7022.0
15-08-2020,Actual,6400.0
16-08-2020,Actual,5781.0
17-08-2020,Actual,5404.0
18-08-2020,Actual,5447.0
19-08-2020,Actual,6395.0
05-09-2020,CNN,7563.1708984375
06-09-2020,CNN,6903.09619140625
07-09-2020,CNN,6584.5810546875
08-09-2020,CNN,7257.2763671875
09-09-2020,CNN,7960.87548828125
10-09-2020,CNN,8209.7314453125
11-09-2020,CNN,7792.19091796875
12-09-2020,CNN,7551.2607421875
13-09-2020,CNN,7261.23193359375
14-09-2020,CNN,6804.2978515625
